
2497	 -662	 8066	 -12	 -20	 5	 -1954	 
2494	 -641	 8050	 -14	 -8	 6	 -1941	 
2481	 -643	 8061	 -14	 -5	 6	 -1949	 
2465	 -653	 8081	 -14	 -4	 5	 -1949	 
2454	 -676	 8093	 -14	 -10	 6	 -1948	 
2467	 -689	 8100	 -13	 -15	 6	 -1957	 
2481	 -681	 8083	 -13	 -19	 6	 -1942	 
2506	 -661	 8059	 -13	 -21	 5	 -1942	 
2513	 -659	 8055	 -13	 -17	 5	 -1950	 
2507	 -656	 8054	 -14	 -8	 5	 -1948	 
2460	 -657	 8079	 -14	 0	 5	 -1948	 
2450	 -664	 8086	 -14	 -6	 6	 -1962	 
2454	 -665	 8094	 -13	 -14	 6	 -1951	 
2508	 -664	 8050	 -14	 -15	 6	 -1956	 
2506	 -673	 8058	 -14	 -9	 5	 -1956	 
2491	 -673	 8085	 -14	 -3	 5	 -1957	 
2464	 -674	 8098	 -14	 -6	 5	 -1951	 
2467	 -673	 8097	 -12	 -13	 5	 -1951	 
2476	 -653	 8071	 -12	 -17	 5	 -1956	 
2485	 -645	 8060	 -13	 -15	 5	 -1944	 
2495	 -645	 8061	 -13	 -14	 5	 -1944	 
2491	 -661	 8067	 -14	 -8	 5	 -1948	 
2479	 -671	 8075	 -14	 -6	 5	 -1952	 
2468	 -679	 8083	 -14	 -8	 5	 -1952	 
2476	 -682	 8099	 -13	 -13	 6	 -1949	 
2476	 -675	 8091	 -13	 -13	 6	 -1958	 
2486	 -652	 8065	 -13	 -11	 5	 -1942	 
2471	 -662	 8067	 -13	 -8	 6	 -1948	 
2470	 -673	 8080	 -14	 -8	 5	 -1948	 
2472	 -676	 8090	 -13	 -10	 5	 -1944	 
2477	 -669	 8078	 -13	 -15	 5	 -1951	 
2482	 -662	 8074	 -13	 -14	 6	 -1951	 
2494	 -658	 8065	 -13	 -15	 5	 -1949	 
2496	 -664	 8064	 -13	 -12	 5	 -1953	 
2491	 -663	 8070	 -14	 -8	 5	 -1953	 
2480	 -659	 8075	 -13	 -9	 5	 -1951	 
2464	 -666	 8086	 -13	 -10	 5	 -1948	 
2466	 -667	 8090	 -12	 -11	 5	 -1948	 
2491	 -658	 8071	 -14	 -13	 6	 -1947	 
2499	 -663	 8078	 -14	 -9	 6	 -1947	 
2491	 -668	 8071	 -14	 -7	 6	 -1952	 
2479	 -672	 8069	 -14	 -14	 6	 -1949	 
2484	 -670	 8073	 -14	 -12	 6	 -1949	 
2489	 -665	 8097	 -13	 -8	 5	 -1960	 
2484	 -664	 8119	 -12	 -13	 5	 -1954	 
2475	 -660	 8101	 -11	 -16	 4	 -1954	 
2471	 -653	 8075	 -11	 -16	 4	 -1955	 
2471	 -655	 8042	 -13	 -16	 6	 -1953	 
2495	 -663	 8103	 -12	 -10	 5	 -1953	 
2500	 -675	 8112	 -11	 -8	 5	 -1957	 
2485	 -656	 8053	 -11	 -22	 5	 -1955	 
2473	 -648	 8057	 -12	 -16	 5	 -1952	 
2476	 -655	 8065	 -12	 -9	 4	 -1950	 
2482	 -666	 8099	 -12	 -4	 4	 -1950	 
2466	 -662	 8073	 -12	 -12	 5	 -1949	 
2473	 -666	 8075	 -11	 -17	 5	 -1950	 
2489	 -662	 8058	 -11	 -14	 5	 -1950	 
2494	 -652	 8053	 -12	 -16	 6	 -1959	 
2497	 -656	 8061	 -12	 -11	 5	 -1953	 
2490	 -653	 8055	 -13	 -8	 5	 -1953	 
2470	 -648	 8049	 -14	 -8	 5	 -1951	 
2473	 -665	 8109	 -14	 -7	 6	 -1949	 
2475	 -668	 8092	 -13	 -13	 6	 -1949	 
2477	 -662	 8061	 -13	 -20	 6	 -1955	 
2497	 -659	 8061	 -14	 -13	 5	 -1968	 
2489	 -667	 8069	 -14	 -9	 5	 -1950	 
2484	 -664	 8086	 -12	 -5	 5	 -1934	 
2461	 -661	 8082	 -13	 -12	 6	 -1934	 
2472	 -667	 8099	 -13	 -13	 6	 -1956	 
2469	 -657	 8083	 -12	 -12	 6	 -1944	 
2497	 -663	 8078	 -11	 -17	 6	 -1944	 
2509	 -663	 8059	 -12	 -18	 5	 -1952	 
2509	 -651	 8046	 -13	 -12	 5	 -1944	 
2495	 -657	 8063	 -14	 -7	 5	 -1944	 
2489	 -653	 8068	 -14	 -6	 5	 -1952	 
2478	 -653	 8079	 -14	 -9	 5	 -1950	 
2464	 -663	 8091	 -13	 -11	 6	 -1950	 
2503	 -663	 8071	 -13	 -16	 6	 -1953	 
2500	 -657	 8066	 -14	 -8	 5	 -1951	 
2490	 -663	 8074	 -13	 -7	 5	 -1943	 
2481	 -665	 8082	 -13	 -9	 6	 -1943	 
2468	 -661	 8086	 -13	 -11	 6	 -1947	 
2467	 -654	 8085	 -13	 -12	 6	 -1954	 
2477	 -652	 8083	 -13	 -16	 5	 -1954	 
2499	 -654	 8065	 -13	 -15	 5	 -1949	 
2498	 -663	 8063	 -14	 -12	 5	 -1956	 
2494	 -666	 8064	 -14	 -9	 5	 -1948	 
2479	 -670	 8080	 -14	 -8	 5	 -1948	 
2474	 -669	 8089	 -13	 -10	 5	 -1962	 
2472	 -660	 8088	 -13	 -12	 6	 -1944	 
2480	 -647	 8068	 -14	 -12	 5	 -1951	 
2483	 -661	 8073	 -13	 -9	 5	 -1951	 
2482	 -672	 8077	 -13	 -12	 5	 -1948	 
2489	 -672	 8072	 -13	 -13	 5	 -1946	 
2490	 -670	 8072	 -13	 -13	 6	 -1946	 
2491	 -664	 8063	 -13	 -13	 5	 -1958	 
2490	 -646	 8058	 -13	 -11	 5	 -1957	 
2445	 -634	 7957	 -14	 -13	 6	 -1957	 
2663	 -638	 8251	 -34	 -32	 10	 -1956	 
2832	 -776	 8955	 -9	 82	 6	 -1948	 
2292	 -732	 7937	 -5	 52	 3	 -1948	 
2568	 -632	 8255	 -13	 -88	 11	 -1944	 
2406	 -741	 8028	 -9	 -8	 10	 -1952	 
2495	 -752	 7932	 -16	 -82	 17	 -1950	 
2569	 -612	 7991	 -13	 26	 11	 -1938	 
2433	 -771	 7970	 -16	 4	 18	 -1938	 
2475	 -776	 8307	 -14	 32	 6	 -1956	 
2373	 -641	 7978	 -9	 -57	 11	 -1951	 
2469	 -682	 8109	 -11	 -69	 10	 -1951	 
2509	 -587	 8129	 -9	 -10	 3	 -1951	 
2506	 -611	 8012	 -16	 -21	 8	 -1956	 
2539	 -668	 8141	 -14	 -17	 6	 -1956	 
2470	 -666	 8058	 -13	 4	 12	 -1961	 
2500	 -757	 8162	 -11	 -17	 14	 -1954	 
2479	 -744	 8128	 -6	 -24	 18	 -1954	 
2471	 -675	 8060	 -9	 -34	 10	 -1947	 
2457	 -624	 8080	 -14	 13	 6	 -1949	 
2434	 -670	 8096	 -13	 -12	 5	 -1948	 
2420	 -681	 8095	 -11	 -8	 7	 -1958	 
2471	 -710	 8069	 -12	 -29	 8	 -1958	 
2533	 -696	 8071	 -12	 -43	 5	 -1954	 
2546	 -637	 7999	 -13	 -11	 6	 -1962	 
2560	 -643	 8025	 -15	 -9	 6	 -1962	 
2522	 -653	 8059	 -15	 0	 6	 -1947	 
2421	 -662	 8115	 -15	 19	 6	 -1943	 
2419	 -680	 8139	 -14	 -8	 6	 -1943	 
2415	 -671	 8118	 -12	 -27	 6	 -1953	 
2496	 -641	 8081	 -12	 -26	 7	 -1955	 
2542	 -648	 8040	 -12	 -38	 6	 -1955	 
2498	 -699	 8082	 -15	 1	 5	 -1948	 
2440	 -685	 8119	 -13	 -3	 6	 -1948	 
2453	 -674	 8107	 -12	 -13	 6	 -1951	 
2474	 -651	 8082	 -12	 -26	 5	 -1943	 
2495	 -618	 8049	 -13	 -15	 6	 -1943	 
2516	 -635	 8055	 -14	 -14	 5	 -1956	 
2507	 -644	 8064	 -14	 0	 6	 -1950	 
2468	 -689	 8101	 -14	 6	 6	 -1950	 
2475	 -709	 8107	 -14	 -10	 6	 -1949	 
2485	 -674	 8076	 -12	 -20	 6	 -1952	 
2501	 -656	 8069	 -12	 -14	 6	 -1952	 
2519	 -642	 8050	 -12	 -20	 6	 -1953	 
2488	 -618	 8059	 -14	 -4	 6	 -1945	 
2444	 -682	 8116	 -13	 -12	 6	 -1943	 
2477	 -685	 8099	 -12	 -22	 5	 -1943	 
2522	 -655	 8045	 -13	 -27	 5	 -1941	 
2531	 -643	 8034	 -13	 -15	 5	 -1949	 
2546	 -650	 8041	 -14	 -10	 6	 -1943	 
2484	 -650	 8072	 -14	 4	 5	 -1943	 
2452	 -658	 8102	 -14	 10	 6	 -1946	 
2440	 -675	 8115	 -13	 -2	 6	 -1941	 
2457	 -662	 8088	 -12	 -26	 6	 -1941	 
2487	 -654	 8080	 -12	 -21	 5	 -1947	 
2513	 -645	 8058	 -13	 -22	 5	 -1944	 
2527	 -642	 8043	 -14	 -11	 5	 -1944	 
2512	 -661	 8064	 -15	 -2	 5	 -1952	 
2454	 -670	 8102	 -13	 -24	 6	 -1951	 
2491	 -638	 8071	 -13	 -25	 5	 -1950	 
2501	 -631	 8060	 -13	 -14	 5	 -1950	 
2503	 -643	 8057	 -14	 -11	 5	 -1953	 
2488	 -657	 8063	 -14	 -8	 5	 -1958	 
2477	 -676	 8087	 -15	 -2	 5	 -1958	 
2475	 -685	 8087	 -13	 -14	 6	 -1939	 
2479	 -680	 8080	 -12	 -18	 6	 -1950	 
2494	 -665	 8075	 -13	 -17	 6	 -1950	 
2505	 -637	 8056	 -13	 -16	 5	 -1946	 
2492	 -637	 8061	 -14	 -6	 5	 -1944	 
2478	 -647	 8074	 -14	 0	 5	 -1944	 
2464	 -671	 8095	 -14	 -11	 5	 -1945	 
2511	 -655	 8062	 -12	 -23	 4	 -1956	 
2515	 -650	 8057	 -14	 -21	 4	 -1944	 
2510	 -656	 8057	 -14	 -15	 5	 -1946	 
2492	 -658	 8072	 -14	 -12	 5	 -1946	 
2471	 -663	 8094	 -14	 -17	 4	 -1938	 
2462	 -668	 8096	 -14	 -30	 4	 -1957	 
2478	 -657	 8080	 -12	 -29	 5	 -1957	 
2498	 -650	 8061	 -13	 -5	 5	 -1952	 
2522	 -650	 8063	 -13	 -12	 4	 -1950	 
2510	 -652	 8055	 -14	 -17	 4	 -1950	 
2504	 -671	 8074	 -15	 -5	 4	 -1948	 
2490	 -678	 8078	 -14	 6	 5	 -1950	 
2475	 -677	 8083	 -14	 18	 5	 -1950	 
2492	 -639	 8059	 -13	 -4	 6	 -1947	 
2486	 -650	 8072	 -14	 4	 5	 -1947	 
2469	 -656	 8090	 -15	 2	 4	 -1943	 
2467	 -672	 8097	 -14	 -23	 5	 -1947	 
2486	 -677	 8081	 -14	 -15	 5	 -1947	 
2495	 -673	 8062	 -13	 10	 6	 -1945	 
2496	 -664	 8066	 -15	 43	 5	 -1946	 
2491	 -661	 8070	 -14	 44	 6	 -1946	 
2479	 -652	 8072	 -16	 45	 5	 -1932	 
2450	 -656	 8074	 -17	 65	 5	 -1958	 
2428	 -660	 8098	 -17	 87	 5	 -1958	 
2381	 -673	 8158	 -20	 -2	 -8	 -1941	 
2417	 -662	 8119	 -17	 -68	 -3	 -1947	 
2458	 -668	 8087	 -17	 22	 -2	 -1944	 
2437	 -666	 8099	 -13	 -39	 4	 -1939	 
2434	 -673	 8096	 -15	 -28	 3	 -1939	 
2423	 -674	 8100	 -13	 -19	 4	 -1947	 
2430	 -655	 8093	 -14	 -34	 3	 -1949	 
2454	 -648	 8066	 -12	 -23	 5	 -1949	 
2464	 -651	 8067	 -12	 -3	 5	 -1951	 
2444	 -660	 8094	 -14	 -12	 5	 -1942	 
2437	 -678	 8108	 -12	 -29	 5	 -1942	 
2438	 -683	 8109	 -15	 -49	 2	 -1950	 
2469	 -673	 8064	 -13	 -26	 5	 -1954	 
2476	 -669	 8066	 -11	 5	 8	 -1954	 
2 -11	 6	 -1864	 
-470	 -8267	 547	 -14	 -11	 7	 -1855	 
-470	 -8271	 543	 -17	 -11	 7	 -1869	 
-473	 -8264	 536	 -11	 -12	 5	 -1862	 
-477	 -8265	 547	 -9	 -12	 5	 -1862	 
-477	 -8270	 555	 -14	 -11	 6	 -1858	 
-468	 -8261	 518	 -17	 -11	 4	 -1860	 
-472	 -8256	 516	 -11	 -12	 4	 -1860	 
-470	 -8253	 530	 -8	 -13	 4	 -1858	 
-462	 -8252	 551	 -11	 -12	 5	 -1865	 
-470	 -8253	 556	 -16	 -11	 6	 -1865	 
-474	 -8257	 548	 -15	 -12	 5	 -1851	 
-468	 -8256	 544	 -11	 -13	 5	 -1861	 
-467	 -8260	 550	 -10	 -12	 5	 -1861	 
-465	 -8265	 529	 -17	 -11	 5	 -1861	 
-470	 -8263	 522	 -15	 -12	 5	 -1861	 
-468	 -8254	 527	 -9	 -12	 4	 -1857	 
-467	 -8252	 537	 -8	 -12	 5	 -1864	 
-470	 -8255	 550	 -9	 -11	 6	 -1864	 
-471	 -8263	 558	 -19	 -12	 6	 -1862	 
-471	 -8264	 544	 -20	 -12	 7	 -1856	 
-475	 -8265	 536	 -15	 -12	 6	 -1856	 
-468	 -8267	 537	 -10	 -12	 4	 -1851	 
-464	 -8260	 539	 -14	 -12	 5	 -1858	 
-467	 -8262	 530	 -17	 -11	 6	 -1858	 
-478	 -8260	 519	 -14	 -12	 5	 -1858	 
-477	 -8257	 522	 -7	 -12	 4	 -1857	 
-469	 -8259	 562	 -15	 -12	 6	 -1867	 
-469	 -8258	 553	 -19	 -11	 6	 -1859	 
-465	 -8256	 542	 -12	 -12	 6	 -1848	 
-465	 -8262	 541	 -12	 -12	 5	 -1848	 
-470	 -8259	 540	 -16	 -12	 6	 -1865	 
-470	 -8254	 517	 -15	 -13	 5	 -1850	 
-469	 -8259	 512	 -15	 -12	 6	 -1850	 
-472	 -8265	 515	 -15	 -12	 6	 -1854	 
-478	 -8262	 528	 -10	 -12	 6	 -1867	 
-475	 -8261	 543	 -8	 -12	 5	 -1867	 
-470	 -8265	 558	 -11	 -12	 5	 -1857	 
-472	 -8258	 548	 -15	 -12	 5	 -1864	 
-471	 -8262	 546	 -15	 -12	 6	 -1864	 
-465	 -8255	 516	 -14	 -12	 5	 -1857	 
-463	 -8254	 516	 -13	 -12	 5	 -1857	 
-467	 -8258	 518	 -13	 -12	 5	 -1868	 
-469	 -8258	 542	 -12	 -13	 5	 -1853	 
-477	 -8260	 548	 -10	 -12	 6	 -1853	 
-476	 -8260	 557	 -11	 -13	 5	 -1863	 
-471	 -8260	 554	 -15	 -12	 5	 -1858	 
-472	 -8256	 547	 -15	 -12	 5	 -1858	 
-467	 -8260	 535	 -15	 -12	 5	 -1869	 
-469	 -8255	 528	 -15	 -11	 5	 -1859	 
-473	 -8266	 522	 -14	 -11	 6	 -1859	 
-479	 -8265	 522	 -14	 -11	 5	 -1854	 
-471	 -8260	 540	 -10	 -13	 5	 -1862	 
-464	 -8259	 553	 -13	 -12	 6	 -1860	 
-469	 -8262	 547	 -15	 -11	 6	 -1856	 
-473	 -8260	 534	 -16	 -11	 6	 -1856	 
-472	 -8258	 544	 -12	 -11	 5	 -1864	 
-469	 -8263	 540	 -16	 -12	 6	 -1853	 
-471	 -8264	 525	 -18	 -11	 6	 -1853	 
-474	 -8261	 515	 -14	 -12	 5	 -1848	 
-471	 -8262	 520	 -9	 -12	 4	 -1847	 
-469	 -8257	 533	 -7	 -12	 5	 -1847	 
-468	 -8258	 548	 -13	 -11	 5	 -1838	 
-476	 -8259	 549	 -15	 -11	 6	 -1860	 
-474	 -8260	 552	 -15	 -11	 5	 -1848	 
-474	 -8256	 536	 -13	 -12	 5	 -1853	 
-469	 -8253	 536	 -13	 -12	 6	 -1844	 
-474	 -8260	 534	 -15	 -11	 6	 -1844	 
-471	 -8257	 535	 -15	 -11	 5	 -1860	 
-471	 -8258	 530	 -11	 -12	 5	 -1865	 
-475	 -8266	 545	 -10	 -12	 5	 -1865	 
-467	 -8264	 554	 -12	 -12	 5	 -1858	 
-466	 -8255	 539	 -15	 -12	 5	 -1863	 
-469	 -8258	 531	 -15	 -11	 5	 -1863	 
-469	 -8260	 537	 -15	 -12	 6	 -1856	 
-473	 -8261	 534	 -13	 -12	 6	 -1850	 
-473	 -8262	 532	 -14	 -12	 6	 -1850	 
-470	 -8261	 533	 -14	 -12	 6	 -1862	 
-469	 -8261	 529	 -12	 -12	 5	 -1863	 
-469	 -8258	 542	 -12	 -11	 5	 -1857	 
-473	 -8262	 544	 -15	 -12	 5	 -1856	 
-474	 -8262	 543	 -15	 -12	 5	 -1856	 
-471	 -8263	 539	 -14	 -12	 5	 -1862	 
-473	 -8261	 534	 -14	 -12	 5	 -1857	 
-472	 -8262	 533	 -14	 -12	 6	 -1857	 
-472	 -8264	 528	 -15	 -12	 5	 -1855	 
-467	 -8264	 531	 -13	 -12	 5	 -1851	 
-466	 -8261	 539	 -11	 -12	 5	 -1851	 
-474	 -8259	 547	 -12	 -12	 5	 -1868	 
-471	 -8255	 541	 -14	 -12	 5	 -1861	 
-472	 -8255	 538	 -15	 -12	 6	 -1861	 
-469	 -8261	 530	 -12	 -11	 5	 -1859	 
-468	 -8263	 534	 -11	 -11	 5	 -1859	 
-466	 -8258	 537	 -15	 -11	 5	 -1862	 
-464	 -8255	 537	 -15	 -12	 6	 -1859	 
-467	 -8257	 539	 -14	 -12	 6	 -1859	 
-464	 -8261	 542	 -13	 -12	 5	 -1860	 
-468	 -8262	 542	 -13	 -12	 5	 -1859	 
-474	 -8259	 541	 -12	 -12	 5	 -1859	 
-468	 -8262	 543	 -14	 -11	 5	 -1861	 
-469	 -8264	 534	 -16	 -11	 6	 -1859	 
-471	 -8262	 528	 -16	 -12	 6	 -1859	 
-470	 -8256	 523	 -12	 -12	 5	 -1856	 
-476	 -8254	 527	 -11	 -12	 5	 -1856	 
-474	 -8263	 539	 -16	 -11	 5	 -1863	 
-473	 -8261	 537	 -14	 -11	 6	 -1856	 
-474	 -8262	 536	 -12	 -12	 5	 -1862	 
-470	 -8258	 540	 -12	 -12	 5	 -1862	 
-468	 -8254	 542	 -14	 -11	 5	 -1868	 
-464	 -8253	 539	 -15	 -12	 5	 -1863	 
-462	 -8263	 532	 -14	 -12	 5	 -1863	 
-465	 -8261	 529	 -14	 -11	 6	 -1857	 
-466	 -8258	 536	 -11	 -12	 5	 -1862	 
-466	 -8261	 538	 -12	 -12	 5	 -1862	 
-471	 -8263	 540	 -13	 -12	 5	 -1859	 
-471	 -8261	 536	 -15	 -11	 5	 -1848	 
-474	 -8257	 536	 -12	 -12	 5	 -1853	 
-475	 -8255	 540	 -13	 -12	 5	 -1855	 
-473	 -8256	 539	 -15	 -12	 5	 -1855	 
-472	 -8259	 532	 -15	 -12	 5	 -1867	 
-467	 -8261	 535	 -12	 -12	 5	 -1859	 
-469	 -8265	 537	 -12	 -12	 5	 -1859	 
-468	 -8264	 538	 -13	 -12	 5	 -1865	 
-467	 -8262	 540	 -14	 -12	 6	 -1859	 
-471	 -8257	 540	 -14	 -12	 6	 -1859	 
-473	 -8262	 538	 -14	 -11	 6	 -1857	 
-463	 -8261	 536	 -13	 -12	 6	 -1853	 
-471	 -8262	 530	 -13	 -12	 6	 -1853	 
-476	 -8260	 532	 -12	 -12	 5	 -1859	 
-475	 -8261	 536	 -14	 -12	 5	 -1851	 
-474	 -8262	 534	 -13	 -12	 6	 -1866	 
-469	 -8260	 538	 -13	 -12	 5	 -1856	 
-466	 -8259	 537	 -14	 -12	 5	 -1856	 
-472	 -8256	 533	 -13	 -12	 5	 -1857	 
-474	 -8259	 531	 -13	 -12	 5	 -1863	 
-472	 -8261	 529	 -14	 -11	 6	 -1863	 
-471	 -8262	 528	 -15	 -12	 6	 -1851	 
-473	 -8263	 525	 -13	 -12	 5	 -1866	 
-474	 -8263	 531	 -11	 -12	 5	 -1866	 
-471	 -8257	 543	 -12	 -12	 5	 -1846	 
-470	 -8257	 543	 -14	 -12	 5	 -1865	 
-466	 -8260	 541	 -15	 -12	 6	 -1854	 
-470	 -8257	 533	 -12	 -12	 5	 -1864	 
-467	 -8257	 532	 -12	 -12	 5	 -1859	 
-467	 -8267	 533	 -16	 -12	 6	 -1859	 
-473	 -8265	 533	 -15	 -12	 6	 -1860	 
-473	 -8261	 532	 -10	 -12	 5	 -1856	 
-467	 -8257	 542	 -10	 -12	 5	 -1856	 
-469	 -8258	 554	 -13	 -12	 5	 -1858	 
-468	 -8260	 550	 -17	 -12	 6	 -1856	 
-470	 -8253	 520	 -12	 -12	 5	 -1856	 
-474	 -8257	 533	 -9	 -12	 6	 -1864	 
-470	 -8265	 549	 -18	 -11	 6	 -1868	 
-470	 -8263	 534	 -21	 -12	 6	 -1868	 
-472	 -8259	 522	 -16	 -11	 6	 -1861	 
-468	 -8256	 541	 -7	 -12	 5	 -1864	 
-468	 -8275	 565	 -15	 -12	 5	 -1854	 
-482	 -8293	 521	 -31	 -11	 6	 -1862	 
-484	 -8270	 491	 -13	 -12	 2	 -1862	 
-473	 -8254	 498	 6	 -13	 0	 -1864	 
-465	 -8244	 565	 -6	 -12	 3	 -1854	 
-462	 -8248	 556	 -24	 -12	 4	 -1854	 
-459	 -8253	 532	 -27	 -11	 6	 -1864	 
-464	 -8244	 522	 -4	 -12	 4	 -1854	 
-466	 -8235	 544	 2	 -13	 4	 -1854	 
-468	 -8236	 574	 -2	 -11	 8	 -1864	 
-473	 -8266	 562	 -33	 -10	 10	 -1858	 
-476	 -8267	 519	 -30	 -11	 8	 -1858	 
-466	 -8261	 534	 -1	 -12	 5	 -1858	 
-467	 -8271	 546	 -12	 -11	 6	 -1858	 
-470	 -8269	 519	 -25	 -10	 8	 -1863	 
-482	 -8274	 516	 -16	 -11	 5	 -1849	 
-482	 -8276	 527	 -7	 -12	 4	 -1849	 
-464	 -8255	 553	 -6	 -13	 3	 -1862	 
-457	 -8253	 556	 -12	 -12	 5	 -1863	 
-458	 -8252	 548	 -17	 -11	 5	 -1863	 
-468	 -8259	 529	 -17	 -11	 7	 -1858	 
-473	 -8259	 524	 -13	 -11	 6	 -1856	 
-480	 -8263	 527	 -11	 -11	 5	 -1856	 
-476	 -8263	 537	 -15	 -12	 5	 -1858	 
-472	 -8257	 530	 -14	 -12	 5	 -1854	 
-466	 -8260	 537	 -12	 -11	 6	 -1863	 
-463	 -8260	 539	 -14	 -11	 6	 -1870	 
-467	 -8259	 540	 -14	 -12	 6	 -1848	 
-478	 -8267	 538	 -14	 -11	 6	 -1848	 
-476	 -8261	 530	 -14	 -13	 4	 -1852	 
-470	 -8260	 525	 -12	 -12	 4	 -1850	 
-466	 -8263	 526	 -13	 -12	 5	 -1850	 
-470	 -8260	 529	 -13	 -12	 6	 -1859	 
-473	 -8258	 532	 -13	 -11	 6	 -1857	 
-475	 -8263	 531	 -13	 -11	 5	 -1857	 
-477	 -8258	 541	 -12	 -12	 5	 -1854	 
-474	 -8263	 542	 -13	 -12	 5	 -1853	 
-475	 -8260	 542	 -14	 -12	 5	 -1853	 
-462	 -8257	 527	 -12	 -12	 6	 -1848	 
-468	 -8259	 528	 -13	 -12	 5	 -1848	 
-473	 -8261	 528	 -13	 -11	 5	 -1863	 
-475	 -8260	 534	 -15	 -12	 6	 -1854	 
-480	 -8259	 537	 -13	 -13	 5	 -1854	 
-479	 -8258	 541	 -11	 -12	 4	 -1860	 
-464	 -8258	 545	 -13	 -12	 5	 -1856	 
-461	 -8258	 540	 -14	 -12	 5	 -1856	 
-464	 -8260	 539	 -14	 -11	 6	 -1864	 
-472	 -8262	 530	 -15	 -12	 6	 -1853	 
-477	 -8264	 529	 -13	 -12	 6	 -1853	 
-482	 -8265	 535	 -13	 -12	 5	 -1859	 
-463	 -8255	 529	 -11	 -12	 5	 -1865	 
-463	 -8257	 538	 -13	 -11	 6	 -1851	 
-462	 -8260	 541	 -13	 -11	 6	 -1863	 
-468	 -8260	 546	 -14	 -12	 5	 -1863	 
-476	 -8261	 535	 -16	 -12	 6	 -1857	 
-474	 -8265	 528	 -17	 -12	 6	 -1861	 
-469	 -8264	 524	 -15	 -13	 5	 -1861	 
-463	 -8256	 522	 -11	 -13	 4	 -1852	 
-468	 -8260	 526	 -11	 -12	 5	 -1853	 
-471	 -8261	 531	 -14	 -12	 5	 -1853	 
-476	 -8260	 541	 -11	 -11	 6	 -1855	 
-478	 -8266	 550	 -14	 -11	 6	 -1864	 
-477	 -8266	 548	 -16	 -11	 5	 -1864	 
-461	 -8254	 536	 -11	 -12	 5	 -1861	 
-464	 -8254	 532	 -14	 -12	 6	 -1844	 
-472	 -8265	 518	 -20	 -11	 6	 -1844	 
-478	 -8264	 509	 -15	 -11	 6	 -1848	 
-480	 -8263	 522	 -9	 -12	 4	 -1844	 
-475	 -8262	 546	 -9	 -13	 4	 -1844	 
-472	 -8263	 544	 -15	 -13	 5	 -1863	 
-468	 -8260	 530	 -14	 -12	 4	 -1857	 
-465	 -8258	 526	 -10	 -12	 5	 -1857	 
-465	 -8254	 539	 -9	 -12	 5	 -1863	 
-464	 -8254	 554	 -14	 -11	 6	 -1854	 
-476	 -8257	 545	 -18	 -12	 6	 -1854	 
-477	 -8253	 529	 -17	 -11	 6	 -1856	 
-464	 -8256	 544	 -11	 -12	 6	 -1860	 
-461	 -8255	 541	 -17	 -11	 7	 -1863	 
-459	 -8259	 522	 -17	 -11	 8	 -1856	 
-474	 -8260	 520	 -15	 -10	 8	 -1856	 
-479	 -8263	 518	 -14	 -12	 6	 -1857	 
-480	 -8268	 535	 -12	 -12	 5	 -1861	 
-477	 -8266	 530	 -12	 -11	 6	 -1861	 
-467	 -8259	 528	 -13	 -12	 6	 -1858	 
-473	 -8254	 550	 -10	 -11	 7	 -1854	 
-477	 -8257	 560	 -12	 -11	 6	 -1854	 
-476	 -8260	 564	 -15	 -11	 7	 -1862	 
-506	 -8287	 561	 -25	 -11	 7	 -1858	 
-492	 -8253	 524	 -14	 -13	 2	 -1858	 
-440	 -8255	 553	 -18	 -11	 6	 -1848	 
-435	 -8256	 526	 -29	 -12	 7	 -1848	 
-454	 -8251	 504	 -8	 -9	 8	 -1851	 
-503	 -8278	 537	 -9	 -9	 8	 -1855	 
-509	 -8276	 549	 -15	 -12	 5	 -1855	 
-488	 -8264	 537	 -12	 -13	 3	 -1864	 
-465	 -8260	 528	 -10	 -15	 2	 -1854	 
-446	 -8255	 533	 -11	 -13	 3	 -1854	 
-454	 -8251	 538	 -12	 -11	 7	 -1860	 
-465	 -8249	 545	 -12	 -10	 7	 -1857	 
-479	 -8260	 553	 -13	 -11	 7	 -1857	 
-503	 -8289	 541	 -29	 -11	 7	 -1853	 
-497	 -8291	 506	 -25	 -13	 3	 -1866	 
-445	 -8249	 506	 4	 -14	 0	 -1856	 
-444	 -8238	 530	 -3	 -13	 3	 -1860	 
-456	 -8239	 552	 -11	 -11	 6	 -1848	 
-485	 -8263	 562	 -20	 -11	 7	 -1848	 
-495	 -8269	 556	 -19	 -11	 6	 -1859	 
-486	 -8271	 559	 -15	 -12	 2	 -1847	 
-460	 -8253	 543	 -6	 -14	 2	 -1847	 
-447	 -8264	 540	 -15	 -13	 4	 -1866	 
-445	 -8266	 511	 -24	 -9	 7	 -1854	 
-472	 -8259	 479	 -12	 -12	 5	 -1854	 
-476	 -8261	 501	 -4	 -13	 3	 -1865	 
-481	 -8255	 538	 -10	 -12	 5	 -1851	 
-473	 -8239	 539	 -11	 -13	 4	 -1851	 
-456	 -8231	 598	 -5	 -13	 6	 -1856	 
-446	 -8245	 598	 -23	 -11	 10	 -1856	 
-462	 -8256	 568	 -33	 -9	 11	 -1863	 
-490	 -8275	 523	 -20	 -10	 10	 -1857	 
-497	 -8287	 518	 -15	 -12	 7	 -1857	 
-502	 -8302	 516	 -19	 -11	 7	 -1857	 
-479	 -8288	 474	 -16	 -13	 3	 -1858	 
-461	 -8270	 475	 0	 -14	 0	 -1858	 
-445	 -8259	 515	 7	 -15	 -1	 -1855	 
-442	 -8242	 570	 -8	 -12	 4	 -1858	 
-453	 -8241	 574	 -17	 -10	 6	 -1858	 
-473	 -8244	 571	 -19	 -9	 7	 -1856	 
-493	 -8248	 552	 -14	 -11	 6	 -1854	 
-481	 -8252	 523	 -20	 -12	 5	 -1862	 
-454	 -8261	 498	 -15	 -14	 5	 -1867	 
-451	 -8261	 503	 -14	 -12	 7	 -1867	 
-457	 -8261	 547	 -8	 -9	 8	 -1855	 
-482	 -8267	 563	 -10	 -10	 7	 -1859	 
-487	 -8266	 564	 -12	 -12	 6	 -1859	 
-483	 -8266	 556	 -17	 -13	 6	 -1854	 
-479	 -8264	 537	 -20	 -12	 6	 -1855	 
-465	 -8261	 518	 -19	 -13	 5	 -1855	 
-452	 -8260	 503	 -9	 -11	 6	 -1862	 
-456	 -8266	 513	 -12	 -11	 6	 -1868	 
